dataexploration.knit
…
  Transactions_per_year = "Number of transactions a client made on a yearly basis",
  Transactions_per_day = "Number of transactions a client made on a daily basis",
  DepositTrx = "Number of deposit transactions",
  DepositTrx_per_day = "Number of deposit transactions made on a daily basis",
  DepositTrx_per_week = "Number of deposit transactions made on a weekly basis",
  DepositTrx_per_month = "Number of deposit transactions made on a monthly basis",
  DepositTrx_per_year = "Number of deposit transactions made on a yearly basis",
  Total_Deposits = "Sum of deposit amount made",
  Total_Deposits_per_day = "Sum of deposit amount saved on a daily basis",
  Total_Deposits_per_week = "Sum of deposit amount saved on a weekly basis",
  Total_Deposits_per_month = "Sum of deposit amount saved on a monthly basis",
  Total_Deposits_per_year = "Sum of deposit amount saved on a yearly basis"
) %>% t() %>% as_tibble(rownames = "Variable") %>% rename("Explanation"="V1")

## # A tibble: 29 x 2
##    Variable      Explanation                                                    
##    <chr>         <chr>                                                          
##  1 ClientID      Unique Client Identifier                                       
##  2 CreatedOn     Date when the Account Was created                              
##  3 No_ofProducts Number of bank products the client is subscribed to            
##  4 Tenure        The length of time a client has stayed with the institution si~
##  5 GenderID      Clients Gender                                                 
##  6 FirstTrxDate  The first time the client made a transaction after onboarding  
##  7 LastTrxDate   The last time the client made a transaction after onboarding   
##  8 TrxTenure     Length of time in days between the first and the last transact~
##  9 Lag_Debit     Difference between the current withdrawal and the preceeding w~
## 10 Lag_Credit    Difference between the current deposit and the preceeding depo~
## # ... with 19 more rows
…
target_cat_sum <- datafile %>% 
  select(discretevars,ChurnStatus) %>% 
  rowid_to_column() %>%
  reshape2::melt(id.vars=c('rowid',"ChurnStatus")) %>% 
  group_by(ChurnStatus,variable,value) %>% 
  tally() %>% 
  reshape2::dcast(variable+value~ChurnStatus,value.var = "n",
                  fun.aggregate = sum,na.rm=T) %>% 
  split(.$variable) %>% 
  map_df(~adorn_totals(.,c('row','col')) %>% 
           mutate(ChurnRate = paste(round(Churn/Total * 100,2) ,"%"))) %>%
  as_tibble() 
target_cat_sum

## # A tibble: 28 x 6
##    variable      value Churn Not_Churn Total ChurnRate
##    <chr>         <chr> <int>     <int> <dbl> <chr>    
##  1 No_ofProducts 1      2999      2934  5933 50.55 %  
##  2 No_ofProducts 2      1360      4689  6049 22.48 %  
##  3 No_ofProducts 3        57       421   478 11.92 %  
##  4 No_ofProducts 4         8        37    45 17.78 %  
##  5 No_ofProducts 5         0         6     6 0 %      
##  6 No_ofProducts 6         0         1     1 0 %      
##  7 Total         -      4424      8088 12512 35.36 %  
##  8 GenderID      F       565      1488  2053 27.52 %  
##  9 GenderID      M      3851      6575 10426 36.94 %  
## 10 GenderID      <NA>      8        25    33 24.24 %  
## # ... with 18 more rows
…
